aiodns==2.0.0
aiohttp==3.5.4
async-timeout==3.0.1
attrs==19.1.0
certifi==2019.3.9
cffi==1.12.3
chardet==3.0.4
Django==2.2.2
django-filter==1.1.0
djangorestframework==3.9.4
djangorestframework-filters==0.11.1
httplib2==0.13.1
idna==2.8
idna-ssl==1.1.0
multidict==4.5.2
oauth2==1.9.0.post1
pycares==3.0.0
pycparser==2.19
pyodbc==4.0.26
pyTelegramBotAPI==3.6.6
python-upwork==1.3.4
pytz==2019.1
requests==2.7.0
six==1.12.0
slackclient==2.0.1
sqlparse==0.3.0
telebot==0.0.3
typing==3.6.6
typing-extensions==3.7.2
urllib3==1.25.3
yarl==1.3.0
